<?xml version="1.0" encoding="utf-8"?>
<!-- Generator: Adobe Illustrator 19.0.1, SVG Export Plug-In . SVG Version: 6.00 Build 0)  -->
<svg version="1.1" id="Layer_1" xmlns="http://www.w3.org/2000/svg" xmlns:xlink="http://www.w3.org/1999/xlink" x="0px" y="0px"
	 viewBox="0 0 89 89" style="enable-background:new 0 0 89 89;" xml:space="preserve">
<style type="text/css">
	.st0{fill:#F68A3E;}
	.st1{clip-path:url(#XMLID_2_);}
	.st2{clip-path:url(#XMLID_3_);}
	.st3{fill:#404039;}
</style>
<g id="XMLID_10014_">
	<g id="XMLID_10015_">
		<circle id="XMLID_10016_" class="st0" cx="44.5" cy="44.5" r="44.5"/>
		<g id="XMLID_10017_">
			<defs>
				<rect id="XMLID_10022_" x="22" y="20.7" width="46" height="47"/>
			</defs>
			<clipPath id="XMLID_2_">
				<use xlink:href="#XMLID_10022_"  style="overflow:visible;"/>
			</clipPath>
			<g id="XMLID_10018_" class="st1">
				<defs>
					<rect id="XMLID_10021_" x="22" y="20.7" width="46" height="47"/>
				</defs>
				<clipPath id="XMLID_3_">
					<use xlink:href="#XMLID_10021_"  style="overflow:visible;"/>
				</clipPath>
				<g id="XMLID_10019_" class="st2">
					<defs>
						<rect id="XMLID_10020_" x="22" y="20.7" width="46" height="47"/>
					</defs>
					<clipPath id="XMLID_4_">
						<use xlink:href="#XMLID_10020_"  style="overflow:visible;"/>
					</clipPath>
				</g>
			</g>
		</g>
	</g>
	<g id="XMLID_12505_">
		<path id="XMLID_10024_" class="st3" d="M32,51.2V34.8c0,0,0-1.1,0.4-1.1h-6.9c0,0-3.5-0.5-3.5,2.8v11.5c0,3.3,3,3.3,3,3.3v16.5h10
			V54.5C35,54.5,32,54.5,32,51.2L32,51.2z M32,51.2"/>
		<path id="XMLID_10027_" class="st3" d="M32,31.5c0.8,0,1.6-0.2,2.3-0.6c0.1-0.1,0.2-0.1,0.3-0.2c1.4-0.9,2.3-2.4,2.3-4.1
			c0-2.7-2.2-4.9-4.9-4.9c-2.7,0-4.9,2.2-4.9,4.9C27.1,29.3,29.3,31.5,32,31.5L32,31.5z M32,31.5"/>
		<path id="XMLID_10030_" class="st3" d="M64.8,33.7h-6.9c0.4,0,0.1,1.1,0.1,1.1v16.4c0,3.3-3,3.3-3,3.3v13.2h10V51.2c0,0,3,0,3-3.3
			V36.5C68,36.5,68.1,33.7,64.8,33.7L64.8,33.7z M64.8,33.2"/>
		<path id="XMLID_10033_" class="st3" d="M55.6,30.7c0.1,0.1,0.2,0.1,0.3,0.2c0.7,0.4,1.5,0.6,2.3,0.6c2.7,0,4.9-2.2,4.9-4.9
			c0-2.7-2.2-4.9-4.9-4.9c-2.7,0-4.9,2.2-4.9,4.9C53.3,28.4,54.2,29.9,55.6,30.7L55.6,30.7z M55.6,30.7"/>
		<path id="XMLID_10036_" class="st3" d="M50,26.6c0,2.7-2.2,4.9-4.9,4.9c-2.7,0-4.9-2.2-4.9-4.9c0-2.7,2.2-4.9,4.9-4.9
			C47.8,21.7,50,23.9,50,26.6L50,26.6z M50,26.6"/>
		<path id="XMLID_10039_" class="st3" d="M55,36.5c0,0,0-2.8-3.3-2.8H38.6c0,0-3.6-0.5-3.6,2.8v11.5c0,3.3,4,3.3,4,3.3v16.5h13V51.2
			c0,0,3,0,3-3.3V36.5z M55,36.5"/>
	</g>
</g>
</svg>
